{
  "statistic" : {
    "failed" : 1,
    "broken" : 1,
    "skipped" : 1,
    "passed" : 7,
    "unknown" : 0,
    "total" : 10
  },
  "time" : {
    "minDuration" : 2,
    "maxDuration" : 432,
    "sumDuration" : 790,
    "start" : 1553451613145,
    "stop" : 1553451614397,
    "duration" : 1252
  },
  "children" : [ {
    "uid" : "76f139b018568bf3",
    "name" : "Тест allure",
    "time" : {
      "minDuration" : 2,
      "maxDuration" : 432,
      "sumDuration" : 437,
      "start" : 1553451613145,
      "stop" : 1553451613644,
      "duration" : 499
    },
    "statistic" : {
      "failed" : 0,
      "broken" : 0,
      "skipped" : 0,
      "passed" : 3,
      "unknown" : 0,
      "total" : 3
    },
    "type" : "TestGroupNode",
    "children" : [ {
      "uid" : "d83505cf765c9933",
      "name" : "Сложение одинарное",
      "time" : {
        "minDuration" : 432,
        "maxDuration" : 432,
        "sumDuration" : 432,
        "start" : 1553451613145,
        "stop" : 1553451613577,
        "duration" : 432
      },
      "statistic" : {
        "failed" : 0,
        "broken" : 0,
        "skipped" : 0,
        "passed" : 1,
        "unknown" : 0,
        "total" : 1
      },
      "type" : "TestGroupNode",
      "children" : [ {
        "uid" : "ca1afe323ba2236d",
        "name" : "Сложение одинарное",
        "time" : {
          "start" : 1553451613145,
          "stop" : 1553451613577,
          "duration" : 432
        },
        "status" : "passed",
        "flaky" : false,
        "type" : "TestCaseNode"
      } ]
    }, {
      "uid" : "acfa6c52c98255d6",
      "name" : "Сложение двух чисел",
      "time" : {
        "minDuration" : 3,
        "maxDuration" : 3,
        "sumDuration" : 3,
        "start" : 1553451613633,
        "stop" : 1553451613636,
        "duration" : 3
      },
      "statistic" : {
        "failed" : 0,
        "broken" : 0,
        "skipped" : 0,
        "passed" : 1,
        "unknown" : 0,
        "total" : 1
      },
      "type" : "TestGroupNode",
      "children" : [ {
        "uid" : "1062e51e1cae4136",
        "name" : "Сложение двух чисел",
        "time" : {
          "start" : 1553451613633,
          "stop" : 1553451613636,
          "duration" : 3
        },
        "status" : "passed",
        "flaky" : true,
        "type" : "TestCaseNode"
      } ]
    }, {
      "uid" : "27e77c7d71c279b2",
      "name" : "Сложение двух чисел еще раз",
      "time" : {
        "minDuration" : 2,
        "maxDuration" : 2,
        "sumDuration" : 2,
        "start" : 1553451613642,
        "stop" : 1553451613644,
        "duration" : 2
      },
      "statistic" : {
        "failed" : 0,
        "broken" : 0,
        "skipped" : 0,
        "passed" : 1,
        "unknown" : 0,
        "total" : 1
      },
      "type" : "TestGroupNode",
      "children" : [ {
        "uid" : "b49d593cf6026fd2",
        "name" : "Сложение двух чисел еще раз",
        "time" : {
          "start" : 1553451613642,
          "stop" : 1553451613644,
          "duration" : 2
        },
        "status" : "passed",
        "flaky" : true,
        "type" : "TestCaseNode"
      } ]
    } ]
  }, {
    "uid" : "e2b66a3e206c3d5b",
    "name" : "Test allure English",
    "time" : {
      "minDuration" : 7,
      "maxDuration" : 11,
      "sumDuration" : 18,
      "start" : 1553451614364,
      "stop" : 1553451614397,
      "duration" : 33
    },
    "statistic" : {
      "failed" : 0,
      "broken" : 0,
      "skipped" : 0,
      "passed" : 2,
      "unknown" : 0,
      "total" : 2
    },
    "type" : "TestGroupNode",
    "children" : [ {
      "uid" : "bd7fe0e5d301b35b",
      "name" : "Two digits multiply",
      "time" : {
        "minDuration" : 11,
        "maxDuration" : 11,
        "sumDuration" : 11,
        "start" : 1553451614386,
        "stop" : 1553451614397,
        "duration" : 11
      },
      "statistic" : {
        "failed" : 0,
        "broken" : 0,
        "skipped" : 0,
        "passed" : 1,
        "unknown" : 0,
        "total" : 1
      },
      "type" : "TestGroupNode",
      "children" : [ {
        "uid" : "c2333bd5b7666d57",
        "name" : "Two digits multiply",
        "time" : {
          "start" : 1553451614386,
          "stop" : 1553451614397,
          "duration" : 11
        },
        "status" : "passed",
        "flaky" : true,
        "type" : "TestCaseNode"
      } ]
    }, {
      "uid" : "b2eeda2e1d6d365b",
      "name" : "Test multiply",
      "time" : {
        "minDuration" : 7,
        "maxDuration" : 7,
        "sumDuration" : 7,
        "start" : 1553451614364,
        "stop" : 1553451614371,
        "duration" : 7
      },
      "statistic" : {
        "failed" : 0,
        "broken" : 0,
        "skipped" : 0,
        "passed" : 1,
        "unknown" : 0,
        "total" : 1
      },
      "type" : "TestGroupNode",
      "children" : [ {
        "uid" : "8bb011226277b1aa",
        "name" : "Test multiply",
        "time" : {
          "start" : 1553451614364,
          "stop" : 1553451614371,
          "duration" : 7
        },
        "status" : "passed",
        "flaky" : false,
        "type" : "TestCaseNode"
      } ]
    } ]
  }, {
    "uid" : "ff10f97006b95208",
    "name" : "Тест allure2",
    "time" : {
      "minDuration" : 2,
      "maxDuration" : 297,
      "sumDuration" : 335,
      "start" : 1553451613971,
      "stop" : 1553451614326,
      "duration" : 355
    },
    "statistic" : {
      "failed" : 1,
      "broken" : 1,
      "skipped" : 1,
      "passed" : 2,
      "unknown" : 0,
      "total" : 5
    },
    "type" : "TestGroupNode",
    "children" : [ {
      "uid" : "3498843fd1a46baf",
      "name" : "Сложение двух чисел2",
      "time" : {
        "minDuration" : 26,
        "maxDuration" : 26,
        "sumDuration" : 26,
        "start" : 1553451613991,
        "stop" : 1553451614017,
        "duration" : 26
      },
      "statistic" : {
        "failed" : 1,
        "broken" : 0,
        "skipped" : 0,
        "passed" : 0,
        "unknown" : 0,
        "total" : 1
      },
      "type" : "TestGroupNode",
      "children" : [ {
        "uid" : "bfb9805919064642",
        "name" : "Сложение двух чисел2",
        "time" : {
          "start" : 1553451613991,
          "stop" : 1553451614017,
          "duration" : 26
        },
        "status" : "failed",
        "flaky" : true,
        "type" : "TestCaseNode"
      } ]
    }, {
      "uid" : "15d80c5dd5ff1fb5",
      "name" : "Пропущен",
      "time" : {
        "minDuration" : 6,
        "maxDuration" : 6,
        "sumDuration" : 6,
        "start" : 1553451614023,
        "stop" : 1553451614029,
        "duration" : 6
      },
      "statistic" : {
        "failed" : 0,
        "broken" : 0,
        "skipped" : 1,
        "passed" : 0,
        "unknown" : 0,
        "total" : 1
      },
      "type" : "TestGroupNode",
      "children" : [ {
        "uid" : "44396c82bd84accf",
        "name" : "Пропущен",
        "time" : {
          "start" : 1553451614023,
          "stop" : 1553451614029,
          "duration" : 6
        },
        "status" : "skipped",
        "flaky" : false,
        "type" : "TestCaseNode"
      } ]
    }, {
      "uid" : "5013bd30791f5dc1",
      "name" : "Сложение одинарное3",
      "time" : {
        "minDuration" : 4,
        "maxDuration" : 4,
        "sumDuration" : 4,
        "start" : 1553451614018,
        "stop" : 1553451614022,
        "duration" : 4
      },
      "statistic" : {
        "failed" : 0,
        "broken" : 0,
        "skipped" : 0,
        "passed" : 1,
        "unknown" : 0,
        "total" : 1
      },
      "type" : "TestGroupNode",
      "children" : [ {
        "uid" : "e1a35846d9cb3423",
        "name" : "Сложение одинарное3",
        "time" : {
          "start" : 1553451614018,
          "stop" : 1553451614022,
          "duration" : 4
        },
        "status" : "passed",
        "flaky" : false,
        "type" : "TestCaseNode"
      } ]
    }, {
      "uid" : "505e87a8feb7de94",
      "name" : "Сломан",
      "time" : {
        "minDuration" : 297,
        "maxDuration" : 297,
        "sumDuration" : 297,
        "start" : 1553451614029,
        "stop" : 1553451614326,
        "duration" : 297
      },
      "statistic" : {
        "failed" : 0,
        "broken" : 1,
        "skipped" : 0,
        "passed" : 0,
        "unknown" : 0,
        "total" : 1
      },
      "type" : "TestGroupNode",
      "children" : [ {
        "uid" : "9da6a0d08db933e0",
        "name" : "Сломан",
        "time" : {
          "start" : 1553451614029,
          "stop" : 1553451614326,
          "duration" : 297
        },
        "status" : "broken",
        "flaky" : false,
        "type" : "TestCaseNode"
      } ]
    }, {
      "uid" : "a6924278b95a1cac",
      "name" : "Сложение одинарное2",
      "time" : {
        "minDuration" : 2,
        "maxDuration" : 2,
        "sumDuration" : 2,
        "start" : 1553451613971,
        "stop" : 1553451613973,
        "duration" : 2
      },
      "statistic" : {
        "failed" : 0,
        "broken" : 0,
        "skipped" : 0,
        "passed" : 1,
        "unknown" : 0,
        "total" : 1
      },
      "type" : "TestGroupNode",
      "children" : [ {
        "uid" : "a1f0804b75f0453f",
        "name" : "Сложение одинарное2",
        "time" : {
          "start" : 1553451613971,
          "stop" : 1553451613973,
          "duration" : 2
        },
        "status" : "passed",
        "flaky" : false,
        "type" : "TestCaseNode"
      } ]
    } ]
  } ]
}