{
  "summary" : {
    "reportName" : "Allure Report",
    "statistic" : {
      "failed" : 1,
      "broken" : 1,
      "skipped" : 1,
      "passed" : 7,
      "unknown" : 0,
      "total" : 10
    },
    "time" : {
      "minDuration" : 2,
      "maxDuration" : 432,
      "sumDuration" : 790,
      "start" : 1553451613145,
      "stop" : 1553451614397,
      "duration" : 1252
    }
  },
  "environment" : [ ],
  "history-trend" : [ {
    "failed" : 1,
    "broken" : 1,
    "skipped" : 1,
    "passed" : 7,
    "unknown" : 0,
    "total" : 10
  } ],
  "behaviors" : {
    "total" : 3,
    "items" : [ {
      "name" : "Тест allure2",
      "statistic" : {
        "failed" : 1,
        "broken" : 1,
        "skipped" : 1,
        "passed" : 2,
        "unknown" : 0,
        "total" : 5
      }
    }, {
      "name" : "Тест allure",
      "statistic" : {
        "failed" : 0,
        "broken" : 0,
        "skipped" : 0,
        "passed" : 3,
        "unknown" : 0,
        "total" : 3
      }
    }, {
      "name" : "Test allure English",
      "statistic" : {
        "failed" : 0,
        "broken" : 0,
        "skipped" : 0,
        "passed" : 2,
        "unknown" : 0,
        "total" : 2
      }
    } ]
  },
  "executors" : [ {
    "name" : "Maven",
    "type" : "maven",
    "buildName" : "Allure Cucumber-JVM with JUnit Example"
  } ],
  "launches" : [ ]
}