{
  "statistic" : {
    "failed" : 1,
    "broken" : 1,
    "skipped" : 1,
    "passed" : 7,
    "unknown" : 0,
    "total" : 10
  },
  "time" : {
    "minDuration" : 2,
    "maxDuration" : 432,
    "sumDuration" : 790,
    "start" : 1553451613145,
    "stop" : 1553451614397,
    "duration" : 1252
  },
  "children" : [ {
    "uid" : "cae58bf6877e727f",
    "name" : "Тест allure",
    "time" : {
      "minDuration" : 2,
      "maxDuration" : 432,
      "sumDuration" : 437,
      "start" : 1553451613145,
      "stop" : 1553451613644,
      "duration" : 499
    },
    "statistic" : {
      "failed" : 0,
      "broken" : 0,
      "skipped" : 0,
      "passed" : 3,
      "unknown" : 0,
      "total" : 3
    },
    "type" : "TestGroupNode",
    "children" : [ {
      "uid" : "ca1afe323ba2236d",
      "name" : "Сложение одинарное",
      "time" : {
        "start" : 1553451613145,
        "stop" : 1553451613577,
        "duration" : 432
      },
      "status" : "passed",
      "flaky" : false,
      "type" : "TestCaseNode"
    }, {
      "uid" : "1062e51e1cae4136",
      "name" : "Сложение двух чисел",
      "time" : {
        "start" : 1553451613633,
        "stop" : 1553451613636,
        "duration" : 3
      },
      "status" : "passed",
      "flaky" : true,
      "type" : "TestCaseNode"
    }, {
      "uid" : "b49d593cf6026fd2",
      "name" : "Сложение двух чисел еще раз",
      "time" : {
        "start" : 1553451613642,
        "stop" : 1553451613644,
        "duration" : 2
      },
      "status" : "passed",
      "flaky" : true,
      "type" : "TestCaseNode"
    } ]
  }, {
    "uid" : "5793080b0ea76b7e",
    "name" : "Test allure English",
    "time" : {
      "minDuration" : 7,
      "maxDuration" : 11,
      "sumDuration" : 18,
      "start" : 1553451614364,
      "stop" : 1553451614397,
      "duration" : 33
    },
    "statistic" : {
      "failed" : 0,
      "broken" : 0,
      "skipped" : 0,
      "passed" : 2,
      "unknown" : 0,
      "total" : 2
    },
    "type" : "TestGroupNode",
    "children" : [ {
      "uid" : "c2333bd5b7666d57",
      "name" : "Two digits multiply",
      "time" : {
        "start" : 1553451614386,
        "stop" : 1553451614397,
        "duration" : 11
      },
      "status" : "passed",
      "flaky" : true,
      "type" : "TestCaseNode"
    }, {
      "uid" : "8bb011226277b1aa",
      "name" : "Test multiply",
      "time" : {
        "start" : 1553451614364,
        "stop" : 1553451614371,
        "duration" : 7
      },
      "status" : "passed",
      "flaky" : false,
      "type" : "TestCaseNode"
    } ]
  }, {
    "uid" : "a6c593b98dd3fe12",
    "name" : "Тест allure2",
    "time" : {
      "minDuration" : 2,
      "maxDuration" : 297,
      "sumDuration" : 335,
      "start" : 1553451613971,
      "stop" : 1553451614326,
      "duration" : 355
    },
    "statistic" : {
      "failed" : 1,
      "broken" : 1,
      "skipped" : 1,
      "passed" : 2,
      "unknown" : 0,
      "total" : 5
    },
    "type" : "TestGroupNode",
    "children" : [ {
      "uid" : "bfb9805919064642",
      "name" : "Сложение двух чисел2",
      "time" : {
        "start" : 1553451613991,
        "stop" : 1553451614017,
        "duration" : 26
      },
      "status" : "failed",
      "flaky" : true,
      "type" : "TestCaseNode"
    }, {
      "uid" : "44396c82bd84accf",
      "name" : "Пропущен",
      "time" : {
        "start" : 1553451614023,
        "stop" : 1553451614029,
        "duration" : 6
      },
      "status" : "skipped",
      "flaky" : false,
      "type" : "TestCaseNode"
    }, {
      "uid" : "e1a35846d9cb3423",
      "name" : "Сложение одинарное3",
      "time" : {
        "start" : 1553451614018,
        "stop" : 1553451614022,
        "duration" : 4
      },
      "status" : "passed",
      "flaky" : false,
      "type" : "TestCaseNode"
    }, {
      "uid" : "9da6a0d08db933e0",
      "name" : "Сломан",
      "time" : {
        "start" : 1553451614029,
        "stop" : 1553451614326,
        "duration" : 297
      },
      "status" : "broken",
      "flaky" : false,
      "type" : "TestCaseNode"
    }, {
      "uid" : "a1f0804b75f0453f",
      "name" : "Сложение одинарное2",
      "time" : {
        "start" : 1553451613971,
        "stop" : 1553451613973,
        "duration" : 2
      },
      "status" : "passed",
      "flaky" : false,
      "type" : "TestCaseNode"
    } ]
  } ]
}